<svg xmlns="http://www.w3.org/2000/svg" width="32" height="32" viewBox="0 0 32 32">
  <rect width="32" height="32" fill="#e0e0e0"/>
  <rect width="32" height="1" fill="#fafafa" fill-opacity="0.4"/>
  <g fill="#212121" opacity="0.87">
    <circle cx="16" cy="16" r="12" opacity="0.08"/>
    <path d="m12 18h8v2h-8z"/>
  </g>
</svg>
