<svg xmlns="http://www.w3.org/2000/svg" width="2" height="32" viewBox="0 0 2 32">
  <rect width="2" height="32" fill="#d0d0d0"/>
  <rect width="2" height="1" fill="#fafafa" fill-opacity="0.4"/>
</svg>
