<svg xmlns="http://www.w3.org/2000/svg" width="2" height="32" viewBox="0 0 2 32">
  <rect width="2" height="32" fill="#bababa"/>
  <rect width="2" height="1" fill="#bababa" fill-opacity="0.4"/>
</svg>
